Seven - Geocode Military Sites from Wikipedia
…
Upload to PostGIS

db <- connect_postgres()
DBI::dbWriteTable(db, "mil_sites_geo", sites_geo, row.names = FALSE, overwrite = TRUE)
DBI::dbDisconnect(db)

Check Data

db <- connect_postgres()
(mil_sites_geo <- db |>
  dplyr::tbl("mil_sites_geo") |>
  dplyr::collect())

# A tibble: 188 × 7
   service type                   name            location     lon   lat address
   <chr>   <chr>                  <chr>           <chr>      <dbl> <dbl> <chr>  
 1 RN/RM   Naval Base             HMS Drake       HMS Drake… -4.19  50.4 hmnb d…
 2 RN/RM   Naval Base             HMS Nelson      HMS Nelso… -1.10  50.8 6 quee…
 3 RN/RM   Naval Base             HMS Neptune     HMS Neptu… -4.81  56.1 faslan…
 4 RN/RM   Air Station            HMS Seahawk     HMS Seaha… -5.05  50.3 cornwa…
 5 RN/RM   Air Station            HMS Heron       HMS Heron… -2.65  51.0 rnas, …
 6 RN/RM   Air Station            HMS Gannet      HMS Ganne… -4.58  55.5 hms ga…
 7 RN/RM   Training Establishment HMS Collingwood HMS Colli… -1.19  50.8 newgat…
 8 RN/RM   Training Establishment HMS Dartmouth   HMS Dartm… -3.58  50.4 britan…
 9 RN/RM   Training Establishment HMS Excellent   HMS Excel… -1.10  50.8 wardro…
10 RN/RM   Training Establishment HMS Raleigh     HMS Ralei… -4.22  50.4 trevol…
# … with 178 more rows
…
