Seven - Landsat API
…
    if(req$status_code != 200) return(req$status_code)
  
  req |> 
    httr::content() |>
    purrr::pluck("data") |>
    purrr::map_df(~dplyr::as_tibble(t(unlist(.x))))
}

dataset_search(api_key)

# A tibble: 43 × 26
   abstractText  acqui…¹ acqui…² catal…³ colle…⁴ colle…⁵ datas…⁶ datas…⁷ datas…⁸
   <chr>         <chr>   <chr>   <chr>   <chr>   <chr>   <chr>   <chr>   <chr>  
 1 "The Landsat… 1984-0… 2021-1… EE      Burned… "U.S. … 5e83a0… sp_til… Landsa…
 2 "This data s… 1984-0… 2021-1… EE      Dynami… "U.S. … 5e83a0… sp_til… Landsa…
 3 "The USGS Ea… 1999-0… <NA>    EE      ETM+ (… "Tri-D… 5e83a1… esat_e… Landsa…
 4 "The USGS Ea… 1999-0… <NA>    EE      ETM+ P… "Tri-D… 5e83a1… esat_e… Landsa…
 5 "The U.S. Ge… 1999-0… <NA>    EE      ETM+ P… "Tri-D… 5e83a1… ortho_… Landsa…
 6 "This data s… 1984-0… 2021-1… EE      Fracti… "U.S. … 5e83a1… sp_til… Landsa…
 7 "The USGS Ea… 2002-0… <NA>    EE      GEOS-5… "Lands… 5e83a1… geos_5… Landsa…
 8 "The U.S. Ge… 1999-0… 2006-1… EE      GLS LI… "Lands… 5e83a1… lima    Landsa…
 9 "The NASA Ma… 2008-1… 2011-1… EE      GWELDM… "NASA … 6079ce… gweldm… GWELD  
10  <NA>         1984-0… 2001-1… EE      GWELDM… "NASA … 609582… gweldm… GWELD  
# … with 33 more rows, 17 more variables: dataOwner <chr>, dateUpdated <chr>,
#   doiNumber <chr>, keywords <chr>, legacyId <chr>, sceneCount <chr>,
#   spatialBounds.north <chr>, spatialBounds.east <chr>,
#   spatialBounds.south <chr>, spatialBounds.west <chr>,
#   temporalCoverage <chr>, supportCloudCover <chr>,
#   supportDeletionSearch <chr>, ingestFrequency <chr>, catalogs1 <chr>,
#   catalogs2 <chr>, catalogs3 <chr>, and abbreviated variable names …
…
    if(req$status_code != 200) return(req$status_code)
    
    httr_content <- req |>
      httr::content() 
    
     total_hits <- httr_content |> purrr::pluck("data", "totalHits")
     results <- httr_content |> purrr::pluck("data", "results")
     
     purrr::map_df(results, ~unlist(.x))
    }

scene_search(api_key)

# A tibble: 1,867 × 41
   browse.id     brows…¹ brows…² brows…³ brows…⁴ brows…⁵ cloud…⁶ entit…⁷ displ…⁸
   <chr>         <chr>   <chr>   <chr>   <chr>   <chr>   <chr>   <chr>   <chr>  
 1 5fb4ba12d7ec… Level-… https:… https:… ls_chs  https:… 47.89   LC8204… LC08_L…
 2 5fb4ba12d7ec… Level-… https:… https:… ls_chs  https:… 13.02   LC8204… LC08_L…
 3 5fb4ba12d7ec… Level-… https:… https:… ls_chs  https:… 20.49   LC8204… LC08_L…
 4 5fb4ba12d7ec… Level-… https:… https:… ls_chs  https:… 34.85   LC8204… LC08_L…
 5 5fb4ba12d7ec… Level-… https:… https:… ls_chs  https:… 38.09   LC8204… LC08_L…
 6 5fb4ba12d7ec… Level-… https:… https:… ls_chs  https:… 87.45   LC8204… LC08_L…
 7 5fb4ba12d7ec… Level-… https:… https:… ls_chs  https:… 74.46   LC8204… LC08_L…
 8 5fb4ba12d7ec… Level-… https:… https:… ls_chs  https:… 99.81   LC9205… LC09_L…
 9 5fb4ba12d7ec… Level-… https:… https:… ls_chs  https:… 72.35   LC9205… LC09_L…
10 5fb4ba12d7ec… Level-… https:… https:… ls_chs  https:… 59.52   LC9205… LC09_L…
# … with 1,857 more rows, 32 more variables: options.bulk <chr>,
#   options.download <chr>, options.order <chr>, options.secondary <chr>,
#   selected.bulk <chr>, selected.compare <chr>, selected.order <chr>,
#   spatialBounds.type <chr>, spatialBounds.coordinates1 <chr>,
#   spatialBounds.coordinates2 <chr>, spatialBounds.coordinates3 <chr>,
#   spatialBounds.coordinates4 <chr>, spatialBounds.coordinates5 <chr>,
#   spatialBounds.coordinates6 <chr>, spatialBounds.coordinates7 <chr>, …
…
