Military Sites from OSM
…
military_sites |>
  dplyr::as_tibble() |>
  dplyr::group_by( military) |>
   dplyr::summarise(n = dplyr::n(), 
                   avg_area = mean(area)) |>
  dplyr::arrange(dplyr::desc(n))

# A tibble: 45 × 3
   military            n avg_area
   <chr>           <int>    <dbl>
 1 bunker           1588     324.
 2 <NA>              780 1556369.
 3 barracks          602   78943.
 4 range             311 1729360.
 5 airfield          126 2371663.
 6 danger_area       124 5459998.
 7 office             95    1331.
 8 training_area      75 2778772.
 9 base               55  719514.
10 obstacle_course    46    4032.
# … with 35 more rows
