Seven - Pubs Near Me
…
pub_point_poly <- pub_points |>
  dplyr::filter(!osm_id %in% points_in_polys$osm_id) |>
  dplyr::select(osm_id, name) |>
  dplyr::bind_rows(
    pub_polys |>
      dplyr::select(osm_id, name)
  )

pub_point_poly |>
  dplyr::as_tibble() |>
  dplyr::group_by(name) |>
  dplyr::count(sort = TRUE)

# A tibble: 73 × 2
# Groups:   name [73]
   name                 n
   <chr>            <int>
 1 The Plough           4
 2 <NA>                 4
 3 The Swan             3
 4 Royal Oak            2
 5 The Angel            2
 6 The Bell             2
 7 Bell Inn             1
 8 Carpenters Arms      1
 9 Chequers             1
10 Clanfield Tavern     1
# … with 63 more rows
